{
	"/mnt/6ADC907CDC90446B/Rahit/Coursera/FullStack Web-Dev/Proyectos/my-drawer-ng2/node_modules/nativescript-google-maps-sdk/platforms/android/.DS_Store": "1d190c20c870ccdbe49db3bf62cfea46e10f65be",
	"/mnt/6ADC907CDC90446B/Rahit/Coursera/FullStack Web-Dev/Proyectos/my-drawer-ng2/node_modules/nativescript-google-maps-sdk/platforms/android/AndroidManifest.xml": "130cc0f7d61291e1fe1fe5162746b1b3def24330",
	"/mnt/6ADC907CDC90446B/Rahit/Coursera/FullStack Web-Dev/Proyectos/my-drawer-ng2/node_modules/nativescript-google-maps-sdk/platforms/android/include.gradle": "faf6fc754a47c6266f96b0406272ff1f1028a054",
	"/mnt/6ADC907CDC90446B/Rahit/Coursera/FullStack Web-Dev/Proyectos/my-drawer-ng2/node_modules/nativescript-google-maps-sdk/platforms/android/res/.DS_Store": "2c2d33f3eaaa50580eb9bf5a5985f2e3578e3c9b",
	"/mnt/6ADC907CDC90446B/Rahit/Coursera/FullStack Web-Dev/Proyectos/my-drawer-ng2/node_modules/nativescript-google-maps-sdk/platforms/android/res/values/nativescript_google_maps_api.xml": "d17f77bd86070f002f9c7e6b406b8e89a9b039a6"
}